1 --- OpenCL Compiler log ---


---------------------------
456.820
6 --- OpenCL Compiler log ---


---------------------------
457.562
12 --- OpenCL Compiler log ---


---------------------------
456.830
